--------------------------------------------------------------------------------
      name:  <unnamed>
       log:  C:\Users\m.callaghan\Documents\GitHub\statsii_0\assignment\stata\q2
> _5.log
  log type:  text
 opened on:  18 Feb 2016, 17:18:52

. *@s
. destring,dpcomma ignore(" ") replace
no already numeric; no replace
area: characters space removed; replaced as double
population has all characters numeric; replaced as double
popdensity: characters space removed; replaced as double
pop18_35 has all characters numeric; replaced as double
pop25_35 has all characters numeric; replaced as double
pop35_60 has all characters numeric; replaced as double
pop60_75 has all characters numeric; replaced as double
pop75_ has all characters numeric; replaced as double
abitur has all characters numeric; replaced as double
localbusinesstax has all characters numeric; replaced as double
unemployment has all characters numeric; replaced as double
socialbenefits has all characters numeric; replaced as double

. *@e
. cap log close
