--------------------------------------------------------------------------------
      name:  <unnamed>
       log:  C:\Users\m.callaghan\Documents\GitHub\statsII_0\stata\logs/scheme.l
> og
  log type:  text
 opened on:   4 Feb 2016, 15:14:01

. clear all

. *@*lstart
. graph query, schemes

Available schemes are

    s2color        see help scheme_s2color
    s2mono         see help scheme_s2mono
    s2manual       see help scheme_s2manual
    s2gmanual      see help scheme_s2gmanual
    s2gcolor       see help scheme_s2gcolor
    s1color        see help scheme_s1color
    s1mono         see help scheme_s1mono
    s1rcolor       see help scheme_s1rcolor
    s1manual       see help scheme_s1manual
    sj             see help scheme_sj
    economist      see help scheme_economist
    s2color8       see help scheme_s2color8
    burd           see help scheme_burd
    burd10
    burd11
    burd3
    burd4
    burd5
    burd6
    burd7
    burd8
    burd9

. set scheme burd

. sysuse auto
(1978 Automobile Data)

. twoway (scatter price mpg) (lfit price mpg)

. graph export ../word/scheme.png, replace
(file ../word/scheme.png written in PNG format)

. *@*lend
. cap log close
